Practice3_data_visualization
…
Now, with the data loaded, we will select the variables we want to
keep and stored it in a wide table format

wide_data_vessels <- dat_vessels %>%
  select(mmsi,flag_gfw,vessel_class_gfw,tonnage_gt_gfw,paste0("fishing_hours_",2012:2020))
wide_data_vessels

## # A tibble: 114,191 × 13
##         mmsi flag_gfw vessel_class_gfw   tonnage_gt_gfw fishing_hours_2012
##        <dbl> <chr>    <chr>                       <dbl>              <dbl>
##  1  40120000 GRC      trawlers                    133                   NA
##  2 444002410 KOR      tuna_purse_seines          2132.                  NA
##  3 987654320 PHL      tuna_purse_seines          1081                   NA
##  4 554128120 NRU      tuna_purse_seines          1350                   NA
##  5 112119600 USA      fishing                      85.5                 NA
##  6  70100732 ARG      fishing                     729                   NA
##  7  24106140 ESP      purse_seines                 58                   NA
##  8 124072890 ESP      trawlers                     79.5                 NA
##  9 420948738 IND      drifting_longlines          465                   NA
## 10 503526000 AUS      set_longlines              2561                   NA
## # ℹ 114,181 more rows
## # ℹ 8 more variables: fishing_hours_2013 <dbl>, fishing_hours_2014 <dbl>,
## #   fishing_hours_2015 <dbl>, fishing_hours_2016 <dbl>,
## #   fishing_hours_2017 <dbl>, fishing_hours_2018 <dbl>,
## #   fishing_hours_2019 <dbl>, fishing_hours_2020 <dbl>
…
We will now, tidy up the table, and will remove all observations with
NA

tidy_data_vessels <- wide_data_vessels %>% 
  pivot_longer(names_to = "year",values_to = "fishing_hours", paste0("fishing_hours_",2012:2020)) %>%
  mutate(year = gsub("fishing_hours_","",year)) %>%
  drop_na()
tidy_data_vessels

## # A tibble: 429,005 × 7
##      mmsi flag_gfw vessel_class_gfw tonnage_gt_gfw continent year  fishing_hours
##     <dbl> <chr>    <chr>                     <dbl> <chr>     <chr>         <dbl>
##  1 4.01e7 GRC      trawlers                  133   Europe    2020          674. 
##  2 4.44e8 KOR      tuna_purse_sein…         2132.  Asia      2020          144. 
##  3 9.88e8 PHL      tuna_purse_sein…         1081   Asia      2020          545. 
##  4 5.54e8 NRU      tuna_purse_sein…         1350   Oceania   2020          587. 
##  5 1.12e8 USA      fishing                    85.5 Americas  2020          318. 
##  6 7.01e7 ARG      fishing                   729   Americas  2014          304. 
##  7 2.41e7 ESP      purse_seines               58   Europe    2020          132. 
##  8 1.24e8 ESP      trawlers                   79.5 Europe    2020           62.4
##  9 4.21e8 IND      drifting_longli…          465   Asia      2013          321. 
## 10 5.04e8 AUS      set_longlines            2561   Oceania   2020           26.4
## # ℹ 428,995 more rows
…
We could use count() on the tidy data table

vessel_count_tidy <- tidy_data_vessels %>% group_by(continent, flag_gfw) %>% count()

However, if we use the long (tidy) dataset, there can be several
lines for each ship. Then, we have to use the wide dataset, since it has
a row for every vessel.

vessel_count <- wide_data_vessels %>% group_by(continent, flag_gfw) %>% count()
vessel_count

## # A tibble: 167 × 3
## # Groups:   continent, flag_gfw [167]
##    continent flag_gfw     n
##    <chr>     <chr>    <int>
##  1 Africa    AGO         37
##  2 Africa    CIV          4
##  3 Africa    CMR         23
##  4 Africa    COM         14
##  5 Africa    CPV          7
##  6 Africa    DJI          4
##  7 Africa    DZA         10
##  8 Africa    EGY          2
##  9 Africa    GHA         99
## 10 Africa    GIN          6
## # ℹ 157 more rows
…
